^C:\USERS\ALEX-2\DESKTOP\DA-61№30\КУРСОВА РОБОТА\CONTACTS\STDAFX.CPP
C:\USERS\ALEX-2\DESKTOP\DA-61№30\Курсова робота\CONTACTS\DEBUG\CONTACTS.PCH
C:\USERS\ALEX-2\DESKTOP\DA-61№30\курсова робота\CONTACTS\DEBUG\VC120.PDB
C:\USERS\ALEX-2\DESKTOP\DA-61№30\курсова робота\CONTACTS\DEBUG\VC120.IDB
C:\USERS\ALEX-2\DESKTOP\DA-61№30\Курсова робота\CONTACTS\DEBUG\STDAFX.OBJ
^C:\USERS\ALEX-2\DESKTOP\DA-61№30\КУРСОВА РОБОТА\CONTACTS\COMPARATOR.CPP|C:\USERS\ALEX-2\DESKTOP\DA-61№30\КУРСОВА РОБОТА\CONTACTS\CONTACT.CPP|C:\USERS\ALEX-2\DESKTOP\DA-61№30\КУРСОВА РОБОТА\CONTACTS\CONTACTS.CPP
C:\USERS\ALEX-2\DESKTOP\DA-61№30\курсова робота\CONTACTS\DEBUG\VC120.PDB
C:\USERS\ALEX-2\DESKTOP\DA-61№30\курсова робота\CONTACTS\DEBUG\VC120.IDB
C:\USERS\ALEX-2\DESKTOP\DA-61№30\Курсова робота\CONTACTS\DEBUG\CONTACTS.OBJ
^C:\USERS\ALEX-2\DESKTOP\DA-61№30\КУРСОВА РОБОТА\CONTACTS\COMPARATOR.CPP
C:\USERS\ALEX-2\DESKTOP\DA-61№30\КУРСОВА РОБОТА\CONTACTS\DEBUG\VC120.PDB
^C:\USERS\ALEX-2\DESKTOP\DA-61№30\КУРСОВА РОБОТА\CONTACTS\CONTACT.CPP
C:\USERS\ALEX-2\DESKTOP\DA-61№30\КУРСОВА РОБОТА\CONTACTS\DEBUG\VC120.PDB
C:\USERS\ALEX-2\DESKTOP\DA-61№30\курсова робота\CONTACTS\DEBUG\VC120.IDB
^C:\USERS\ALEX-2\DESKTOP\DA-61№30\КУРСОВА РОБОТА\CONTACTS\CONTACTS.CPP
C:\USERS\ALEX-2\DESKTOP\DA-61№30\КУРСОВА РОБОТА\CONTACTS\DEBUG\VC120.PDB
C:\USERS\ALEX-2\DESKTOP\DA-61№30\курсова робота\CONTACTS\DEBUG\VC120.IDB
C:\USERS\ALEX-2\DESKTOP\DA-61№30\Курсова робота\CONTACTS\DEBUG\CONTACTS.OBJ
^C:\USERS\ALEX-2\DESKTOP\DA-61№30\КУРСОВА РОБОТА\CONTACTS\COMPARATOR.CPP|C:\USERS\ALEX-2\DESKTOP\DA-61№30\КУРСОВА РОБОТА\CONTACTS\CONTACT.CPP
C:\USERS\ALEX-2\DESKTOP\DA-61№30\курсова робота\CONTACTS\DEBUG\VC120.PDB
C:\USERS\ALEX-2\DESKTOP\DA-61№30\курсова робота\CONTACTS\DEBUG\VC120.IDB
^C:\USERS\ALEX-2\DESKTOP\DA-61№30\КУРСОВА РОБОТА\CONTACTS\CONTACT.CPP|C:\USERS\ALEX-2\DESKTOP\DA-61№30\КУРСОВА РОБОТА\CONTACTS\CONTACTS.CPP|C:\USERS\ALEX-2\DESKTOP\DA-61№30\КУРСОВА РОБОТА\CONTACTS\IERARCHY.CPP|C:\USERS\ALEX-2\DESKTOP\DA-61№30\КУРСОВА РОБОТА\CONTACTS\VIEW.CPP
C:\USERS\ALEX-2\DESKTOP\DA-61№30\курсова робота\CONTACTS\DEBUG\VC120.PDB
C:\USERS\ALEX-2\DESKTOP\DA-61№30\курсова робота\CONTACTS\DEBUG\VC120.IDB
C:\USERS\ALEX-2\DESKTOP\DA-61№30\Курсова робота\CONTACTS\DEBUG\CONTACTS.OBJ
C:\USERS\ALEX-2\DESKTOP\DA-61№30\Курсова робота\CONTACTS\DEBUG\CONTACT.OBJ
C:\USERS\ALEX-2\DESKTOP\DA-61№30\Курсова робота\CONTACTS\DEBUG\VIEW.OBJ
^C:\USERS\ALEX-2\DESKTOP\DA-61№30\КУРСОВА РОБОТА\CONTACTS\IERARCHY.CPP
C:\USERS\ALEX-2\DESKTOP\DA-61№30\КУРСОВА РОБОТА\CONTACTS\DEBUG\VC120.PDB
^C:\USERS\ALEX-2\DESKTOP\DA-61№30\КУРСОВА РОБОТА\CONTACTS\VIEW.CPP
C:\USERS\ALEX-2\DESKTOP\DA-61№30\КУРСОВА РОБОТА\CONTACTS\DEBUG\VC120.PDB
C:\USERS\ALEX-2\DESKTOP\DA-61№30\курсова робота\CONTACTS\DEBUG\VC120.IDB
C:\USERS\ALEX-2\DESKTOP\DA-61№30\Курсова робота\CONTACTS\DEBUG\VIEW.OBJ
^C:\USERS\ALEX-2\DESKTOP\DA-61№30\КУРСОВА РОБОТА\CONTACTS\CONTACT.CPP|C:\USERS\ALEX-2\DESKTOP\DA-61№30\КУРСОВА РОБОТА\CONTACTS\CONTACTS.CPP|C:\USERS\ALEX-2\DESKTOP\DA-61№30\КУРСОВА РОБОТА\CONTACTS\IERARCHY.CPP
C:\USERS\ALEX-2\DESKTOP\DA-61№30\курсова робота\CONTACTS\DEBUG\VC120.PDB
C:\USERS\ALEX-2\DESKTOP\DA-61№30\курсова робота\CONTACTS\DEBUG\VC120.IDB
C:\USERS\ALEX-2\DESKTOP\DA-61№30\Курсова робота\CONTACTS\DEBUG\CONTACT.OBJ
C:\USERS\ALEX-2\DESKTOP\DA-61№30\Курсова робота\CONTACTS\DEBUG\IERARCHY.OBJ
^C:\USERS\ALEX-2\DESKTOP\DA-61№30\КУРСОВА РОБОТА\CONTACTS\IERARCHY.CPP|C:\USERS\ALEX-2\DESKTOP\DA-61№30\КУРСОВА РОБОТА\CONTACTS\VIEW.CPP
C:\USERS\ALEX-2\DESKTOP\DA-61№30\курсова робота\CONTACTS\DEBUG\VC120.PDB
C:\USERS\ALEX-2\DESKTOP\DA-61№30\курсова робота\CONTACTS\DEBUG\VC120.IDB
C:\USERS\ALEX-2\DESKTOP\DA-61№30\Курсова робота\CONTACTS\DEBUG\VIEW.OBJ
^C:\USERS\ALEX-2\DESKTOP\DA-61№30\КУРСОВА РОБОТА\CONTACTS\CONTACT.CPP|C:\USERS\ALEX-2\DESKTOP\DA-61№30\КУРСОВА РОБОТА\CONTACTS\IERARCHY.CPP|C:\USERS\ALEX-2\DESKTOP\DA-61№30\КУРСОВА РОБОТА\CONTACTS\VIEW.CPP
C:\USERS\ALEX-2\DESKTOP\DA-61№30\курсова робота\CONTACTS\DEBUG\VC120.PDB
C:\USERS\ALEX-2\DESKTOP\DA-61№30\курсова робота\CONTACTS\DEBUG\VC120.IDB
C:\USERS\ALEX-2\DESKTOP\DA-61№30\Курсова робота\CONTACTS\DEBUG\CONTACT.OBJ
^C:\USERS\ALEX-2\DESKTOP\DA-61№30\КУРСОВА РОБОТА\CONTACTS\CONTACT.CPP|C:\USERS\ALEX-2\DESKTOP\DA-61№30\КУРСОВА РОБОТА\CONTACTS\IERARCHY.CPP
C:\USERS\ALEX-2\DESKTOP\DA-61№30\курсова робота\CONTACTS\DEBUG\VC120.PDB
C:\USERS\ALEX-2\DESKTOP\DA-61№30\курсова робота\CONTACTS\DEBUG\VC120.IDB
C:\USERS\ALEX-2\DESKTOP\DA-61№30\Курсова робота\CONTACTS\DEBUG\CONTACT.OBJ
C:\USERS\ALEX-2\DESKTOP\DA-61№30\Курсова робота\CONTACTS\DEBUG\IERARCHY.OBJ
^C:\USERS\ALEX-2\DESKTOP\DA-61№30\КУРСОВА РОБОТА\CONTACTS\CONTACTS.CPP|C:\USERS\ALEX-2\DESKTOP\DA-61№30\КУРСОВА РОБОТА\CONTACTS\IERARCHY.CPP|C:\USERS\ALEX-2\DESKTOP\DA-61№30\КУРСОВА РОБОТА\CONTACTS\VIEW.CPP
C:\USERS\ALEX-2\DESKTOP\DA-61№30\курсова робота\CONTACTS\DEBUG\VC120.PDB
C:\USERS\ALEX-2\DESKTOP\DA-61№30\курсова робота\CONTACTS\DEBUG\VC120.IDB
C:\USERS\ALEX-2\DESKTOP\DA-61№30\Курсова робота\CONTACTS\DEBUG\CONTACTS.OBJ
C:\USERS\ALEX-2\DESKTOP\DA-61№30\Курсова робота\CONTACTS\DEBUG\IERARCHY.OBJ
C:\USERS\ALEX-2\DESKTOP\DA-61№30\Курсова робота\CONTACTS\DEBUG\VIEW.OBJ
