^C:\USERS\ALEX-2\DESKTOP\DA-61№30\ЛАБОРАТОРНА РОБОТА №1\CONSOLEAPPLICATION1\DEBUG\CONSOLEAPPLICATION1.OBJ|C:\USERS\ALEX-2\DESKTOP\DA-61№30\ЛАБОРАТОРНА РОБОТА №1\CONSOLEAPPLICATION1\DEBUG\STDAFX.OBJ|C:\USERS\ALEX-2\DESKTOP\DA-61№30\ЛАБОРАТОРНА РОБОТА №1\CONSOLEAPPLICATION1\DEBUG\WINDOWCONTROLLER.OBJ|C:\USERS\ALEX-2\DESKTOP\DA-61№30\ЛАБОРАТОРНА РОБОТА №1\CONSOLEAPPLICATION1\DEBUG\WINDOWCONTROLLER1.OBJ|C:\USERS\ALEX-2\DESKTOP\DA-61№30\ЛАБОРАТОРНА РОБОТА №1\CONSOLEAPPLICATION1\DEBUG\WINDOWMODEL.OBJ|C:\USERS\ALEX-2\DESKTOP\DA-61№30\ЛАБОРАТОРНА РОБОТА №1\CONSOLEAPPLICATION1\DEBUG\WINDOWVIEW.OBJ
C:\PROGRAM FILES (X86)\WINDOWS KITS\8.1\LIB\WINV6.3\UM\X86\KERNEL32.LIB
C:\PROGRAM FILES (X86)\WINDOWS KITS\8.1\LIB\WINV6.3\UM\X86\USER32.LIB
C:\PROGRAM FILES (X86)\WINDOWS KITS\8.1\LIB\WINV6.3\UM\X86\GDI32.LIB
C:\PROGRAM FILES (X86)\WINDOWS KITS\8.1\LIB\WINV6.3\UM\X86\WINSPOOL.LIB
C:\PROGRAM FILES (X86)\WINDOWS KITS\8.1\LIB\WINV6.3\UM\X86\COMDLG32.LIB
C:\PROGRAM FILES (X86)\WINDOWS KITS\8.1\LIB\WINV6.3\UM\X86\ADVAPI32.LIB
C:\PROGRAM FILES (X86)\WINDOWS KITS\8.1\LIB\WINV6.3\UM\X86\SHELL32.LIB
C:\PROGRAM FILES (X86)\WINDOWS KITS\8.1\LIB\WINV6.3\UM\X86\OLE32.LIB
C:\PROGRAM FILES (X86)\WINDOWS KITS\8.1\LIB\WINV6.3\UM\X86\OLEAUT32.LIB
C:\PROGRAM FILES (X86)\WINDOWS KITS\8.1\LIB\WINV6.3\UM\X86\UUID.LIB
C:\PROGRAM FILES (X86)\WINDOWS KITS\8.1\LIB\WINV6.3\UM\X86\ODBC32.LIB
C:\PROGRAM FILES (X86)\WINDOWS KITS\8.1\LIB\WINV6.3\UM\X86\ODBCCP32.LIB
C:\USERS\ALEX-2\DESKTOP\DA-61№30\Лабораторна робота №1\CONSOLEAPPLICATION1\DEBUG\CONSOLEAPPLICATION1.OBJ
C:\USERS\ALEX-2\DESKTOP\DA-61№30\Лабораторна робота №1\CONSOLEAPPLICATION1\DEBUG\STDAFX.OBJ
C:\USERS\ALEX-2\DESKTOP\DA-61№30\Лабораторна робота №1\CONSOLEAPPLICATION1\DEBUG\WINDOWCONTROLLER.OBJ
C:\USERS\ALEX-2\DESKTOP\DA-61№30\Лабораторна робота №1\CONSOLEAPPLICATION1\DEBUG\WINDOWCONTROLLER1.OBJ
C:\USERS\ALEX-2\DESKTOP\DA-61№30\Лабораторна робота №1\CONSOLEAPPLICATION1\DEBUG\WINDOWMODEL.OBJ
C:\USERS\ALEX-2\DESKTOP\DA-61№30\Лабораторна робота №1\CONSOLEAPPLICATION1\DEBUG\WINDOWVIEW.OBJ
C:\WINDOWS\SYSTEM32\TZRES.DLL
C:\WINDOWS\GLOBALIZATION\SORTING\SORTDEFAULT.NLS
C:\PROGRAM FILES (X86)\MICROSOFT VISUAL STUDIO 12.0\VC\LIB\MSVCPRTD.LIB
C:\PROGRAM FILES (X86)\MICROSOFT VISUAL STUDIO 12.0\VC\LIB\MSVCRTD.LIB
C:\PROGRAM FILES (X86)\MICROSOFT VISUAL STUDIO 12.0\VC\LIB\OLDNAMES.LIB
